
-----------------------------------------------------------------------------------
ActionDiagram documentation for function: chgSegmentAndCentre of type CHGOBJ
-----------------------------------------------------------------------------------
	/***********************************
	* USER: 8 USER: Processing Before Data Read
	***********************************/
	// Unprocessed SUB 8 - 
	
	/************ end USER ************/

	/***********************************
	* USER: 10 USER: Processing Before Data Update
	***********************************/
	
	
	/************ end USER ************/

	/***********************************
	* USER: 23 USER: Processing After Data Update
	***********************************/
	// Unprocessed SUB 23 - 
	
	/************ end USER ************/

	/***********************************
	* USER: 43 USER: Processing if Data Record Not Found
	***********************************/
	// Unprocessed SUB 43 - 
	
	/************ end USER ************/

	/***********************************
	* USER: 48 USER: Processing After Data Read
	***********************************/
	// Unprocessed SUB 48 - 
	
	/************ end USER ************/


